…
Article 6: lawful processing of personal data (i.e. consent, etc)

Article 13: inform subject when personal data is collected

Article 15: right of access by data subject

Article 32: security of processing (i.e. data breaches)

As a first step in analysis gdpr violations and get a understanding of tidymodels
I will explore the data.

gdpr_raw

## # A tibble: 250 x 11
##       id picture name   price authority date  controller article_violated type 
##    <dbl> <chr>   <chr>  <dbl> <chr>     <chr> <chr>      <chr>            <chr>
##  1     1 https:~ Pola~   9380 Polish N~ 10/1~ Polish Ma~ Art. 28 GDPR     Non-~
##  2     2 https:~ Roma~   2500 Romanian~ 10/1~ UTTIS IND~ Art. 12 GDPR|Ar~ Info~
##  3     3 https:~ Spain  60000 Spanish ~ 10/1~ Xfera Mov~ Art. 5 GDPR|Art~ Non-~
##  4     4 https:~ Spain   8000 Spanish ~ 10/1~ Iberdrola~ Art. 31 GDPR     Fail~
##  5     5 https:~ Roma~ 150000 Romanian~ 10/0~ Raiffeise~ Art. 32 GDPR     Fail~
##  6     6 https:~ Roma~  20000 Romanian~ 10/0~ Vreau Cre~ Art. 32 GDPR|Ar~ Fail~
##  7     7 https:~ Gree~ 200000 Hellenic~ 10/0~ Telecommu~ Art. 5 (1) c) G~ Fail~
##  8     8 https:~ Gree~ 200000 Hellenic~ 10/0~ Telecommu~ Art. 21 (3) GDP~ Fail~
##  9     9 https:~ Spain  30000 Spanish ~ 10/0~ Vueling A~ Art. 5 GDPR|Art~ Non-~
## 10    10 https:~ Roma~   9000 Romanian~ 09/2~ Inteligo ~ Art. 5 (1) a) G~ Non-~
## # ... with 240 more rows, and 2 more variables: source <chr>, summary <chr>
…
  # Beacuse we know it is an integer we can say map_int
  mutate(total_articles = map_int(articles, length)) %>%
  # by unnest we are gonna spread the articles.
  unnest(articles) %>%
  # We can count the number of articles.
  # There is 27 articles and is to many for our modelling
  # this wee need to faut
  # count(articles, sort = TRUE)
  add_count(articles) %>%
  filter(n > 10) %>%
  select(-n)
# Kow we have a row for each violations and not
gdp_tidy

## # A tibble: 304 x 6
##       id  price country article_violated                 articles total_articles
##    <dbl>  <dbl> <chr>   <chr>                            <chr>             <int>
##  1     2   2500 Romania Art. 12 GDPR|Art. 13 GDPR|Art. ~ Art. 13               4
##  2     2   2500 Romania Art. 12 GDPR|Art. 13 GDPR|Art. ~ Art. 5                4
##  3     2   2500 Romania Art. 12 GDPR|Art. 13 GDPR|Art. ~ Art. 6                4
##  4     3  60000 Spain   Art. 5 GDPR|Art. 6 GDPR          Art. 5                2
##  5     3  60000 Spain   Art. 5 GDPR|Art. 6 GDPR          Art. 6                2
##  6     5 150000 Romania Art. 32 GDPR                     Art. 32               1
##  7     6  20000 Romania Art. 32 GDPR|Art. 33 GDPR        Art. 32               2
##  8     7 200000 Greece  Art. 5 (1) c) GDPR|Art. 25 GDPR  Art. 5                2
##  9     9  30000 Spain   Art. 5 GDPR|Art. 6 GDPR          Art. 5                2
## 10     9  30000 Spain   Art. 5 GDPR|Art. 6 GDPR          Art. 6                2
## # ... with 294 more rows
…
# Back to one row to on violation.
gdpr_violation <- gdp_tidy %>%
  mutate(value = 1) %>%
  select(-article_violated) %>%
  # article and value is gonna be maded wider
  pivot_wider(
    names_from = articles, values_from = value,
    values_fn = list(value = max),
    values_fill = list(value = 0)
  ) %>%
  janitor::clean_names()

gdpr_violation

## # A tibble: 219 x 9
##       id  price country total_articles art_13 art_5 art_6 art_32 art_15
##    <dbl>  <dbl> <chr>            <int>  <dbl> <dbl> <dbl>  <dbl>  <dbl>
##  1     2   2500 Romania              4      1     1     1      0      0
##  2     3  60000 Spain                2      0     1     1      0      0
##  3     5 150000 Romania              1      0     0     0      1      0
##  4     6  20000 Romania              2      0     0     0      1      0
##  5     7 200000 Greece               2      0     1     0      0      0
##  6     9  30000 Spain                2      0     1     1      0      0
##  7    10   9000 Romania              2      0     1     1      0      0
##  8    11 195407 Germany              3      0     0     0      0      1
##  9    12  10000 Belgium              1      0     1     0      0      0
## 10    13 644780 Poland               1      0     0     0      1      0
## # ... with 209 more rows
…
We only want to look at the important country, so the other we collapses with Other.

At last we create an indicator variable and remove variable with zero variance.

Until know we haven´t don anything but only defined a lot of stuff. With prep
we evaluted our data.

Here we introduced the workflow() which can be associates with lego blocks. Here
we can have both the recipe and model (our model is a OLS model).

# How does our data look like know?
juice(gdpr_prep)

## # A tibble: 219 x 14
##       id total_articles art_13 art_5 art_6 art_32 art_15 price country_Czech.R~
##    <dbl>          <int>  <dbl> <dbl> <dbl>  <dbl>  <dbl> <dbl>            <dbl>
##  1     2              4      1     1     1      0      0  3.40                0
##  2     3              2      0     1     1      0      0  4.78                0
##  3     5              1      0     0     0      1      0  5.18                0
##  4     6              2      0     0     0      1      0  4.30                0
##  5     7              2      0     1     0      0      0  5.30                0
##  6     9              2      0     1     1      0      0  4.48                0
##  7    10              2      0     1     1      0      0  3.95                0
##  8    11              3      0     0     0      0      1  5.29                0
##  9    12              1      0     1     0      0      0  4.00                0
## 10    13              1      0     0     0      1      0  5.81                0
## # ... with 209 more rows, and 5 more variables: country_Germany <dbl>,
## #   country_Hungary <dbl>, country_Romania <dbl>, country_Spain <dbl>,
## #   country_Other <dbl>
…
mean_pred <- predict(gdpr_fit,
  new_data = new_data
)

conf_int_pred <- predict(gdpr_fit,
  new_data = new_data,
  type = "conf_int"
)
gdpr_res <- new_data %>%
  bind_cols(mean_pred) %>%
  bind_cols(conf_int_pred)

gdpr_res

## # A tibble: 32 x 11
##    country art_5 art_6 art_13 art_15 art_32 total_articles    id .pred
##    <chr>   <int> <int>  <int>  <int>  <int>          <int> <int> <dbl>
##  1 Other       0     0      0      0      0              0     1  4.00
##  2 Other       0     0      0      0      1              1     2  4.33
##  3 Other       0     0      0      1      0              1     3  2.91
##  4 Other       0     0      0      1      1              2     4  3.24
##  5 Other       0     0      1      0      0              1     5  3.72
##  6 Other       0     0      1      0      1              2     6  4.04
##  7 Other       0     0      1      1      0              2     7  2.63
##  8 Other       0     0      1      1      1              3     8  2.96
##  9 Other       0     1      0      0      0              1     9  3.92
## 10 Other       0     1      0      0      1              2    10  4.25
## # ... with 22 more rows, and 2 more variables: .pred_lower <dbl>,
## #   .pred_upper <dbl>
…
